COVID-19 Vaccine Data Analysis
…
Plot the predicted deaths against actual death

##check info
##US_state_totals %>% slice_min(cases_per_thou)
##US_state_totals %>% slice_max(cases_per_thou)

x_grid<-seq(1,151)
new_df<-tibble(cases_per_thou=x_grid)
US_state_totals%>% mutate(pred=predict(mod))

## # A tibble: 56 x 7
##    Province_State deaths  cases population cases_per_thou deaths_per_thou   pred
##    <chr>           <dbl>  <dbl>      <dbl>          <dbl>           <dbl>  <dbl>
##  1 Alabama         17502 1.26e6    4903185        256.               3.57  2.85 
##  2 Alaska           1114 2.30e5     740995        311.               1.50  3.48 
##  3 American Samoa      0 1.8 e1      55641          0.324            0    -0.140
##  4 Arizona         26856 1.93e6    7278717        265.               3.69  2.95 
##  5 Arkansas         9937 8.02e5    3017804        266.               3.29  2.96 
##  6 California      82122 8.78e6   39512223        222.               2.08  2.45 
##  7 Colorado        11583 1.29e6    5758736        223.               2.01  2.46 
##  8 Connecticut     10219 7.12e5    3565287        200.               2.87  2.19 
##  9 Delaware         2601 2.53e5     973764        259.               2.67  2.88 
## 10 District of C~   1305 1.33e5     705749        188.               1.85  2.05 
## # ... with 46 more rows
…
